[
    {
        "pageable": {
            "sort": {
                "empty": true,
                "sorted": false,
                "unsorted": true
            },
            "offset": 0,
            "pageNumber": 0,
            "pageSize": 100,
            "paged": true,
            "unpaged": false
        },
        "totalPages": 1,
        "totalElements": 100,
        "last": true,
        "size": 100,
        "number": 0,
        "sort": {
            "empty": true,
            "sorted": false,
            "unsorted": true
        },
        "numberOfElements": 100,
        "first": true,
        "empty": false
    },
    {
        "pageable": {
            "sort": {
                "empty": true,
                "sorted": false,
                "unsorted": true
            },
            "offset": 100,
            "pageNumber": 1,
            "pageSize": 100,
            "paged": true,
            "unpaged": false
        },
        "totalPages": 2,
        "totalElements": 200,
        "last": true,
        "size": 100,
        "number": 1,
        "sort": {
            "empty": true,
            "sorted": false,
            "unsorted": true
        },
        "numberOfElements": 100,
        "first": false,
        "empty": false
    },
    {
        "pageable": {
            "sort": {
                "empty": true,
                "sorted": false,
                "unsorted": true
            },
            "offset": 200,
            "pageNumber": 2,
            "pageSize": 100,
            "paged": true,
            "unpaged": false
        },
        "totalPages": 3,
        "totalElements": 300,
        "last": true,
        "size": 100,
        "number": 2,
        "sort": {
            "empty": true,
            "sorted": false,
            "unsorted": true
        },
        "numberOfElements": 100,
        "first": false,
        "empty": false
    },
    {
        "pageable": {
            "sort": {
                "empty": true,
                "sorted": false,
                "unsorted": true
            },
            "offset": 300,
            "pageNumber": 3,
            "pageSize": 100,
            "paged": true,
            "unpaged": false
        },
        "totalPages": 4,
        "totalElements": 400,
        "last": true,
        "size": 100,
        "number": 3,
        "sort": {
            "empty": true,
            "sorted": false,
            "unsorted": true
        },
        "numberOfElements": 100,
        "first": false,
        "empty": false
    },
    {
        "pageable": {
            "sort": {
                "empty": true,
                "sorted": false,
                "unsorted": true
            },
            "offset": 400,
            "pageNumber": 4,
            "pageSize": 100,
            "paged": true,
            "unpaged": false
        },
        "totalPages": 5,
        "totalElements": 500,
        "last": true,
        "size": 100,
        "number": 4,
        "sort": {
            "empty": true,
            "sorted": false,
            "unsorted": true
        },
        "numberOfElements": 100,
        "first": false,
        "empty": false
    },
    {
        "pageable": {
            "sort": {
                "empty": true,
                "sorted": false,
                "unsorted": true
            },
            "offset": 500,
            "pageNumber": 5,
            "pageSize": 100,
            "paged": true,
            "unpaged": false
        },
        "totalPages": 6,
        "totalElements": 600,
        "last": true,
        "size": 100,
        "number": 5,
        "sort": {
            "empty": true,
            "sorted": false,
            "unsorted": true
        },
        "numberOfElements": 100,
        "first": false,
        "empty": false
    },
    {
        "pageable": {
            "sort": {
                "empty": true,
                "sorted": false,
                "unsorted": true
            },
            "offset": 600,
            "pageNumber": 6,
            "pageSize": 100,
            "paged": true,
            "unpaged": false
        },
        "totalPages": 7,
        "totalElements": 700,
        "last": true,
        "size": 100,
        "number": 6,
        "sort": {
            "empty": true,
            "sorted": false,
            "unsorted": true
        },
        "numberOfElements": 100,
        "first": false,
        "empty": false
    },
    {
        "pageable": {
            "sort": {
                "empty": true,
                "sorted": false,
                "unsorted": true
            },
            "offset": 700,
            "pageNumber": 7,
            "pageSize": 100,
            "paged": true,
            "unpaged": false
        },
        "totalPages": 8,
        "totalElements": 800,
        "last": true,
        "size": 100,
        "number": 7,
        "sort": {
            "empty": true,
            "sorted": false,
            "unsorted": true
        },
        "numberOfElements": 100,
        "first": false,
        "empty": false
    }
]